gene1,gene2,link
ADNP,FOXK2,1
ADNP,GATAD2B,1
ADNP,HOPX,1
ADNP,LASS5,1
ADNP,MAEL,1
ADNP,NFIC,1
ADNP,RC3H1,1
ADNP,RCOR3,1
ADNP,STAT6,1
ADNP,ZBTB26,1
ADNP,ZFPM2,1
ADNP,ZNF133,1
ADNP,ZNF34,1
ADNP,ZNF398,1
ADNP,ZNF577,1
ADNP,ZNF609,1
AHDC1,ZBED3,1
AKAP8,BNC2,1
ATF2,C17orf49,1
ATF2,CENPB,1
ATF2,E4F1,1
ATF2,GTF2F1,1
ATF2,H1FX,1
ATF2,HES4,1
ATF2,NFAT5,1
ATF2,NR2F2,1
ATF2,POLE4,1
ATF2,PRR3,1
ATF2,PRRX1,1
ATF2,RNF114,1
ATF2,SOX1,1
ATF2,UNKL,1
ATF2,ZHX2,1
ATF2,ZNF154,1
ATF2,ZNF200,1
ATF2,ZNF213,1
ATF2,ZNF273,1
ATF2,ZNF280B,1
ATF2,ZNF384,1
ATF2,ZNF48,1
ATF2,ZNF513,1
ATF2,ZNF583,1
ATF2,ZNF606,1
ATF2,ZNF639,1
ATF2,ZNF697,1
ATF2,ZNF787,1
ATF2,ZNFX1,1
ATF2,ZSCAN21,1
ATF6,ATOH7,1
ATF6,CAMTA2,1
ATF6,CBFB,1
ATF6,CREM,1
ATF6,DACH1,1
ATF6,ELF2,1
ATF6,FBXO41,1
ATF6,GATAD2B,1
ATF6,GPR123,1
ATF6,KLF13,1
ATF6,MAEL,1
ATF6,MYST4,1
ATF6,NFIC,1
ATF6,PRDM16,1
ATF6,RAPGEF4,1
ATF6,RARB,1
ATF6,RC3H1,1
ATF6,SOX9,1
ATF6,SSRP1,1
ATF6,STAT6,1
ATF6,TFAP4,1
ATF6,ZBTB26,1
ATF6,ZFPM2,1
ATF6,ZNF133,1
ATF6,ZNF136,1
ATF6,ZNF268,1
ATF6,ZNF281,1
ATF6,ZNF34,1
ATF6,ZNF550,1
ATF6,ZNF565,1
ATF6,ZNF577,1
ATF6,ZNF609,1
ATF7,BAZ2B,1
ATF7,CENPB,1
ATF7,ELF2,1
ATF7,FOXQ1,1
ATF7,MGA,1
ATF7,RUNX2,1
ATF7,SHPRH,1
ATF7,ZNF22,1
ATF7,ZNF226,1
ATF7,ZNF273,1
ATF7,ZNF511,1
ATF7,ZNF550,1
ATMIN,CDC5L,1
ATMIN,HES6,1
ATMIN,MTF1,1
ATMIN,ZIC2,1
ATOH7,CAMTA2,1
ATOH7,CARHSP1,1
ATOH7,CBFB,1
ATOH7,CREM,1
ATOH7,DACH1,1
ATOH7,GPR123,1
ATOH7,HIC2,1
ATOH7,KLF13,1
ATOH7,MYST4,1
ATOH7,NEUROD1,1
ATOH7,PRDM16,1
ATOH7,RAPGEF4,1
ATOH7,RARB,1
ATOH7,SOX9,1
ATOH7,STAT6,1
ATOH7,TFAP4,1
ATOH7,THAP5,1
ATOH7,ZFPM2,1
ATOH7,ZNF133,1
ATOH7,ZNF22,1
ATOH7,ZNF268,1
ATOH7,ZNF281,1
ATOH7,ZNF34,1
ATOH7,ZNF385B,1
ATOH7,ZNF43,1
ATOH7,ZNF432,1
ATOH7,ZNF574,1
ATOH7,ZNF577,1
BAZ2B,ELF2,1
BAZ2B,FOXQ1,1
BAZ2B,MGA,1
BAZ2B,RCOR3,1
BAZ2B,RUNX2,1
BAZ2B,SHPRH,1
BAZ2B,ZNF22,1
BAZ2B,ZNF226,1
BAZ2B,ZNF273,1
BAZ2B,ZNF511,1
BAZ2B,ZNF550,1
BDP1,HIC2,1
BDP1,KLF5,1
BDP1,LARP1,1
BDP1,LASS5,1
BDP1,MYST2,1
BDP1,TRPS1,1
BDP1,ZNF184,1
BDP1,ZNF34,1
BDP1,ZNF574,1
BDP1,ZNF776,1
BRPF1,EXOC2,1
BRPF1,KLF15,1
C14orf43,KLF5,1
C14orf43,SMAD9,1
C14orf43,ZC3H4,1
C17orf49,C20orf194,1
C17orf49,CDC5L,1
C17orf49,CENPB,1
C17orf49,DNAJC2,1
C17orf49,E4F1,1
C17orf49,H1FX,1
C17orf49,HES4,1
C17orf49,HES6,1
C17orf49,HEYL,1
C17orf49,HSF2,1
C17orf49,KLF6,1
C17orf49,NFAT5,1
C17orf49,NR2F2,1
C17orf49,POLE4,1
C17orf49,PRR3,1
C17orf49,SOX1,1
C17orf49,SP8,1
C17orf49,TRIM3,1
C17orf49,UNKL,1
C17orf49,ZBED3,1
C17orf49,ZFR2,1
C17orf49,ZHX2,1
C17orf49,ZIC2,1
C17orf49,ZKSCAN1,1
C17orf49,ZNF154,1
C17orf49,ZNF200,1
C17orf49,ZNF213,1
C17orf49,ZNF22,1
C17orf49,ZNF223,1
C17orf49,ZNF273,1
C17orf49,ZNF280B,1
C17orf49,ZNF304,1
C17orf49,ZNF384,1
C17orf49,ZNF48,1
C17orf49,ZNF513,1
C17orf49,ZNF583,1
C17orf49,ZNF606,1
C17orf49,ZNF639,1
C17orf49,ZNF697,1
C17orf49,ZNF787,1
C17orf49,ZSCAN21,1
C20orf194,CENPB,1
C20orf194,H1FX,1
C20orf194,RUNX2,1
C20orf194,ZNF273,1
C20orf194,ZNF513,1
C20orf194,ZNF667,1
C20orf194,ZNF697,1
C20orf194,ZSCAN21,1
CAMTA2,CBFB,1
CAMTA2,DACH1,1
CAMTA2,DHX57,1
CAMTA2,DVL3,1
CAMTA2,FOXP4,1
CAMTA2,GPR123,1
CAMTA2,HIC2,1
CAMTA2,KLF13,1
CAMTA2,LASS5,1
CAMTA2,MYST4,1
CAMTA2,NEUROD1,1
CAMTA2,PATZ1,1
CAMTA2,PRDM2,1
CAMTA2,RAPGEF4,1
CAMTA2,RARB,1
CAMTA2,SMAD9,1
CAMTA2,SOX9,1
CAMTA2,STAT6,1
CAMTA2,TFAP4,1
CAMTA2,THAP5,1
CAMTA2,ZNF133,1
CAMTA2,ZNF184,1
CAMTA2,ZNF22,1
CAMTA2,ZNF34,1
CAMTA2,ZNF385B,1
CAMTA2,ZNF43,1
CAMTA2,ZNF432,1
CAMTA2,ZNF574,1
CAMTA2,ZUFSP,1
CARHSP1,CBFB,1
CARHSP1,CREM,1
CARHSP1,CSDC2,1
CARHSP1,DACH1,1
CARHSP1,DHX57,1
CARHSP1,DLX1,1
CARHSP1,DLX5,1
CARHSP1,DNAJC2,1
CARHSP1,DVL3,1
CARHSP1,EBF4,1
CARHSP1,FOSL2,1
CARHSP1,GTF2F1,1
CARHSP1,H1FX,1
CARHSP1,HES6,1
CARHSP1,HIC2,1
CARHSP1,HSF2,1
CARHSP1,KLF13,1
CARHSP1,KLF5,1
CARHSP1,LARP1,1
CARHSP1,MAF,1
CARHSP1,MAFB,1
CARHSP1,MYCN,1
CARHSP1,MYST2,1
CARHSP1,MYST4,1
CARHSP1,NEUROD1,1
CARHSP1,NR1D2,1
CARHSP1,NR3C1,1
CARHSP1,PATZ1,1
CARHSP1,POLR2L,1
CARHSP1,PPP1R10,1
CARHSP1,PRDM2,1
CARHSP1,PRRX1,1
CARHSP1,RAPGEF4,1
CARHSP1,RFX1,1
CARHSP1,SETBP1,1
CARHSP1,SKI,1
CARHSP1,SMAD9,1
CARHSP1,SOX1,1
CARHSP1,SOX5,1
CARHSP1,SOX6,1
CARHSP1,SOX9,1
CARHSP1,TFAM,1
CARHSP1,TFAP4,1
CARHSP1,THAP5,1
CARHSP1,VPS72,1
CARHSP1,ZC3H15,1
CARHSP1,ZC3H4,1
CARHSP1,ZHX3,1
CARHSP1,ZNF133,1
CARHSP1,ZNF184,1
CARHSP1,ZNF22,1
CARHSP1,ZNF223,1
CARHSP1,ZNF281,1
CARHSP1,ZNF311,1
CARHSP1,ZNF34,1
CARHSP1,ZNF384,1
CARHSP1,ZNF385B,1
CARHSP1,ZNF43,1
CARHSP1,ZNF432,1
CARHSP1,ZNF512,1
CARHSP1,ZNF574,1
CARHSP1,ZNF776,1
CARHSP1,ZUFSP,1
CBFB,DACH1,1
CBFB,GPR123,1
CBFB,HSF2,1
CBFB,KLF13,1
CBFB,PATZ1,1
CBFB,RAPGEF4,1
CBFB,TFAP4,1
CBFB,THAP5,1
CBFB,ZNF133,1
CBFB,ZNF22,1
CBFB,ZNF223,1
CBFB,ZNF281,1
CBFB,ZNF320,1
CBFB,ZNF34,1
CBFB,ZNF385B,1
CBFB,ZNF43,1
CBFB,ZNF432,1
CBFB,ZNF574,1
CBFB,ZUFSP,1
CDC5L,H1FX,1
CDC5L,HES6,1
CDC5L,RFX1,1
CDC5L,SOX1,1
CDC5L,TBX10,1
CDC5L,ZIC2,1
CDC5L,ZNF200,1
CDC5L,ZNF22,1
CDC5L,ZNF223,1
CDC5L,ZNF384,1
CDC5L,ZNF394,1
CDC5L,ZNF48,1
CDC5L,ZNF513,1
CDC5L,ZNF583,1
CDC5L,ZNF639,1
CDC5L,ZNF697,1
CDC5L,ZSCAN21,1
CEBPG,MXD4,1
CENPB,DNAJC2,1
CENPB,E4F1,1
CENPB,FOXQ1,1
CENPB,GTF2F1,1
CENPB,H1FX,1
CENPB,HES4,1
CENPB,HES6,1
CENPB,HEYL,1
CENPB,MXD4,1
CENPB,NFAT5,1
CENPB,NR2F2,1
CENPB,POLE4,1
CENPB,POLR2L,1
CENPB,PRR3,1
CENPB,RNF114,1
CENPB,RUNX2,1
CENPB,SOX1,1
CENPB,SP8,1
CENPB,STAT2,1
CENPB,UNKL,1
CENPB,ZBED3,1
CENPB,ZBTB4,1
CENPB,ZBTB45,1
CENPB,ZFR2,1
CENPB,ZHX2,1
CENPB,ZKSCAN1,1
CENPB,ZNF154,1
CENPB,ZNF200,1
CENPB,ZNF213,1
CENPB,ZNF22,1
CENPB,ZNF223,1
CENPB,ZNF226,1
CENPB,ZNF273,1
CENPB,ZNF280B,1
CENPB,ZNF384,1
CENPB,ZNF48,1
CENPB,ZNF493,1
CENPB,ZNF511,1
CENPB,ZNF513,1
CENPB,ZNF583,1
CENPB,ZNF606,1
CENPB,ZNF639,1
CENPB,ZNF697,1
CENPB,ZNF787,1
CENPB,ZNFX1,1
CENPB,ZSCAN21,1
CREB3L1,EMX2,1
CREB3L1,GLI3,1
CREB3L1,KLF5,1
CREB3L1,MYST2,1
CREB3L1,ZFPM2,1
CREB3L1,ZNF184,1
CREB3L1,ZNF34,1
CREM,DACH1,1
CREM,FOSL2,1
CREM,MYST4,1
CREM,RORB,1
CREM,SETDB1,1
CREM,STAT6,1
CREM,ZC3H4,1
CREM,ZNF133,1
CREM,ZNF281,1
CREM,ZNF34,1
CREM,ZNF577,1
CREM,ZNF609,1
CSDC2,DLX1,1
CSDC2,DVL3,1
CSDC2,FGD1,1
CSDC2,JAZF1,1
CSDC2,KLF5,1
CSDC2,MAF,1
CSDC2,MAFB,1
CSDC2,MBNL1,1
CSDC2,MBNL2,1
CSDC2,MRRF,1
CSDC2,MYT1L,1
CSDC2,NFKB1,1
CSDC2,NOC3L,1
CSDC2,NR2C1,1
CSDC2,NR3C1,1
CSDC2,PBX1,1
CSDC2,RIOK2,1
CSDC2,SETBP1,1
CSDC2,SKI,1
CSDC2,SOX5,1
CSDC2,THAP5,1
CSDC2,TRPS1,1
CSDC2,ZBTB4,1
CSDC2,ZC3H4,1
CSDC2,ZNF184,1
CSDC2,ZNF311,1
CSDC2,ZNF34,1
CSDC2,ZNF776,1
CUL4B,GATAD2B,1
CUL4B,RC3H1,1
CUL4B,RCOR3,1
CUL4B,ZNF609,1
DACH1,DHX57,1
DACH1,DLX5,1
DACH1,DVL3,1
DACH1,FGD1,1
DACH1,FOSL2,1
DACH1,FOXP4,1
DACH1,GATAD2B,1
DACH1,GPR123,1
DACH1,HIC2,1
DACH1,HOPX,1
DACH1,HSF2,1
DACH1,ID4,1
DACH1,KLF13,1
DACH1,KLF3,1
DACH1,LASS5,1
DACH1,MAEL,1
DACH1,MAF,1
DACH1,MBNL1,1
DACH1,MBNL2,1
DACH1,MLXIP,1
DACH1,MYBL1,1
DACH1,MYCN,1
DACH1,MYST4,1
DACH1,NEUROD1,1
DACH1,NR1D2,1
DACH1,NR3C1,1
DACH1,PATZ1,1
DACH1,PRDM16,1
DACH1,PRDM2,1
DACH1,RAPGEF4,1
DACH1,RARB,1
DACH1,RC3H1,1
DACH1,RFX1,1
DACH1,RIOK2,1
DACH1,SETBP1,1
DACH1,SETDB1,1
DACH1,SKI,1
DACH1,SMAD9,1
DACH1,SOX5,1
DACH1,SOX6,1
DACH1,SOX9,1
DACH1,STAT6,1
DACH1,TFAP4,1
DACH1,THAP5,1
DACH1,ZBTB26,1
DACH1,ZC3H15,1
DACH1,ZC3H4,1
DACH1,ZC3H8,1
DACH1,ZFPM2,1
DACH1,ZNF133,1
DACH1,ZNF184,1
DACH1,ZNF22,1
DACH1,ZNF268,1
DACH1,ZNF281,1
DACH1,ZNF295,1
DACH1,ZNF317,1
DACH1,ZNF322A,1
DACH1,ZNF34,1
DACH1,ZNF385B,1
DACH1,ZNF398,1
DACH1,ZNF43,1
DACH1,ZNF432,1
DACH1,ZNF512,1
DACH1,ZNF570,1
DACH1,ZNF574,1
DACH1,ZNF577,1
DACH1,ZNF609,1
DACH1,ZUFSP,1
DHX57,DLX5,1
DHX57,DVL3,1
DHX57,FGD1,1
DHX57,FOXP4,1
DHX57,KLF5,1
DHX57,MAF,1
DHX57,MAFB,1
DHX57,MBNL1,1
DHX57,MBNL2,1
DHX57,NR3C1,1
DHX57,PATZ1,1
DHX57,PBX1,1
DHX57,PRDM2,1
DHX57,RAPGEF4,1
DHX57,RARB,1
DHX57,SMAD9,1
DHX57,SOX5,1
DHX57,STAT6,1
DHX57,THAP5,1
DHX57,ZBTB4,1
DHX57,ZC3H4,1
DHX57,ZNF133,1
DHX57,ZNF184,1
DHX57,ZNF22,1
DHX57,ZNF295,1
DHX57,ZNF311,1
DHX57,ZNF34,1
DHX57,ZNF385B,1
DHX57,ZNF43,1
DHX57,ZNF432,1
DHX57,ZNF512,1
DHX57,ZUFSP,1
DLX1,DLX5,1
DLX1,DR1,1
DLX1,DVL3,1
DLX1,EBF4,1
DLX1,FGD1,1
DLX1,GTF2F1,1
DLX1,KLF5,1
DLX1,KLF6,1
DLX1,MAF,1
DLX1,MAFB,1
DLX1,MBNL1,1
DLX1,MBNL2,1
DLX1,MYCN,1
DLX1,MYST2,1
DLX1,NOC3L,1
DLX1,PBX1,1
DLX1,PRDM2,1
DLX1,PRRX1,1
DLX1,SKI,1
DLX1,SMAD9,1
DLX1,SOX5,1
DLX1,SOX6,1
DLX1,THAP5,1
DLX1,TRPS1,1
DLX1,ZBTB4,1
DLX1,ZC3H15,1
DLX1,ZC3H4,1
DLX1,ZNF311,1
DLX1,ZNF512,1
DLX1,ZNF608,1
DLX1,ZNF776,1
DLX5,DVL3,1
DLX5,FGD1,1
DLX5,KLF5,1
DLX5,MAF,1
DLX5,MAFB,1
DLX5,MBNL1,1
DLX5,MBNL2,1
DLX5,MYCN,1
DLX5,NEUROD1,1
DLX5,NR1D2,1
DLX5,PBX1,1
DLX5,PRDM2,1
DLX5,RAPGEF4,1
DLX5,SETBP1,1
DLX5,SMAD1,1
DLX5,SOX5,1
DLX5,SOX6,1
DLX5,STAT6,1
DLX5,THAP5,1
DLX5,ZBTB4,1
DLX5,ZC3H15,1
DLX5,ZC3H4,1
DLX5,ZNF184,1
DLX5,ZNF22,1
DLX5,ZNF311,1
DLX5,ZNF322A,1
DLX5,ZNF34,1
DLX5,ZNF404,1
DLX5,ZNF512,1
DLX5,ZNF608,1
DLX5,ZNF776,1
DNAJC2,GTF2F1,1
DNAJC2,H1FX,1
DNAJC2,HES6,1
DNAJC2,HSF2,1
DNAJC2,KLF6,1
DNAJC2,MAF,1
DNAJC2,MAFB,1
DNAJC2,NEUROD1,1
DNAJC2,NFAT5,1
DNAJC2,POLR2L,1
DNAJC2,SKI,1
DNAJC2,SOX1,1
DNAJC2,SOX6,1
DNAJC2,THAP5,1
DNAJC2,ZC3H4,1
DNAJC2,ZNF22,1
DNAJC2,ZNF223,1
DNAJC2,ZNF273,1
DNAJC2,ZNF384,1
DNAJC2,ZNF48,1
DNAJC2,ZNF513,1
DNAJC2,ZNF697,1
DNAJC2,ZSCAN21,1
DR1,DVL3,1
DR1,EBF4,1
DR1,EMX2,1
DR1,EXOC2,1
DR1,H1FX,1
DR1,HSF2,1
DR1,KLF15,1
DR1,KLF5,1
DR1,KLF6,1
DR1,LARP1,1
DR1,MAF,1
DR1,MAFB,1
DR1,MYST2,1
DR1,PRR3,1
DR1,PRRX1,1
DR1,SP8,1
DR1,STAT2,1
DR1,TFAM,1
DR1,THAP5,1
DR1,TRIM3,1
DR1,TRPS1,1
DR1,ZC3H4,1
DR1,ZNF133,1
DR1,ZNF184,1
DR1,ZNF22,1
DR1,ZNF223,1
DR1,ZNF277,1
DR1,ZNF34,1
DR1,ZNF384,1
DR1,ZNF608,1
DR1,ZNF667,1
DR1,ZNF738,1
DR1,ZNF776,1
DR1,ZNF828,1
DR1,ZSCAN21,1
DVL3,EBF4,1
DVL3,EXOC2,1
DVL3,FGD1,1
DVL3,FOXK2,1
DVL3,FOXP4,1
DVL3,GATAD1,1
DVL3,HOPX,1
DVL3,HSF2,1
DVL3,JAZF1,1
DVL3,KLF3,1
DVL3,KLF5,1
DVL3,KLF6,1
DVL3,LASS5,1
DVL3,MAF,1
DVL3,MAFB,1
DVL3,MAFK,1
DVL3,MBNL1,1
DVL3,MBNL2,1
DVL3,MLXIP,1
DVL3,MRRF,1
DVL3,MYCN,1
DVL3,MYST2,1
DVL3,MYST4,1
DVL3,MYT1L,1
DVL3,NEUROD1,1
DVL3,NFKB1,1
DVL3,NOC3L,1
DVL3,NR1D2,1
DVL3,NR3C1,1
DVL3,PATZ1,1
DVL3,PBX1,1
DVL3,PRDM2,1
DVL3,RAPGEF4,1
DVL3,RARB,1
DVL3,RIOK2,1
DVL3,SETBP1,1
DVL3,SETDB1,1
DVL3,SKI,1
DVL3,SMAD1,1
DVL3,SMAD9,1
DVL3,SOX5,1
DVL3,SOX6,1
DVL3,STAT6,1
DVL3,TFAM,1
DVL3,THAP5,1
DVL3,TRPS1,1
DVL3,ZBTB4,1
DVL3,ZC3H15,1
DVL3,ZC3H4,1
DVL3,ZC3H8,1
DVL3,ZFP37,1
DVL3,ZFPM2,1
DVL3,ZHX3,1
DVL3,ZNF133,1
DVL3,ZNF184,1
DVL3,ZNF22,1
DVL3,ZNF295,1
DVL3,ZNF311,1
DVL3,ZNF317,1
DVL3,ZNF322A,1
DVL3,ZNF34,1
DVL3,ZNF385B,1
DVL3,ZNF398,1
DVL3,ZNF404,1
DVL3,ZNF43,1
DVL3,ZNF432,1
DVL3,ZNF500,1
DVL3,ZNF512,1
DVL3,ZNF570,1
DVL3,ZNF574,1
DVL3,ZNF577,1
DVL3,ZNF589,1
DVL3,ZNF608,1
DVL3,ZNF609,1
DVL3,ZNF667,1
DVL3,ZNF738,1
DVL3,ZNF776,1
DVL3,ZNF786,1
DVL3,ZUFSP,1
E4F1,GRHL1,1
E4F1,GTF2F1,1
E4F1,H1FX,1
E4F1,IRF9,1
E4F1,NFAT5,1
E4F1,NR2F2,1
E4F1,PRRX1,1
E4F1,RNF114,1
E4F1,SOX1,1
E4F1,UNKL,1
E4F1,ZC3H4,1
E4F1,ZNF154,1
E4F1,ZNF273,1
E4F1,ZNF513,1
E4F1,ZNF606,1
E4F1,ZNF639,1
E4F1,ZNF692,1
E4F1,ZNF787,1
E4F1,ZNFX1,1
EBF4,EMX2,1
EBF4,FGD1,1
EBF4,KLF15,1
EBF4,KLF5,1
EBF4,KLF6,1
EBF4,MAF,1
EBF4,MAFB,1
EBF4,MBNL1,1
EBF4,MYCN,1
EBF4,MYST2,1
EBF4,PBX1,1
EBF4,PRRX1,1
EBF4,SETBP1,1
EBF4,SKI,1
EBF4,SMAD9,1
EBF4,SOX5,1
EBF4,THAP5,1
EBF4,TRPS1,1
EBF4,ZBTB4,1
EBF4,ZC3H4,1
EBF4,ZNF133,1
EBF4,ZNF184,1
EBF4,ZNF311,1
EBF4,ZNF34,1
EBF4,ZNF608,1
EBF4,ZNF776,1
ELF2,FBXO41,1
ELF2,GATAD2B,1
ELF2,MAEL,1
ELF2,MGA,1
ELF2,RC3H1,1
ELF2,RCOR3,1
ELF2,RUNX2,1
ELF2,ZBTB26,1
ELF2,ZNF511,1
ELF2,ZNF550,1
ELF2,ZNF781,1
EMX2,EXOC2,1
EMX2,GATAD1,1
EMX2,GLI3,1
EMX2,KLF5,1
EMX2,KLF6,1
EMX2,MAF,1
EMX2,MAFB,1
EMX2,MYST2,1
EMX2,NR2C1,1
EMX2,PRRX1,1
EMX2,SMARCA5,1
EMX2,TFAM,1
EMX2,THAP5,1
EMX2,TRPS1,1
EMX2,ZC3H4,1
EMX2,ZHX3,1
EMX2,ZNF133,1
EMX2,ZNF184,1
EMX2,ZNF34,1
EMX2,ZNF404,1
EMX2,ZNF667,1
EMX2,ZNF776,1
EMX2,ZSCAN21,1
EXOC2,H1FX,1
EXOC2,KLF15,1
EXOC2,KLF5,1
EXOC2,KLF6,1
EXOC2,LARP1,1
EXOC2,MAF,1
EXOC2,MAFB,1
EXOC2,MYST2,1
EXOC2,PRR3,1
EXOC2,PRRX1,1
EXOC2,STAT2,1
EXOC2,TFAM,1
EXOC2,THAP5,1
EXOC2,TRPS1,1
EXOC2,ZC3H4,1
EXOC2,ZHX3,1
EXOC2,ZNF184,1
EXOC2,ZNF22,1
EXOC2,ZNF223,1
EXOC2,ZNF34,1
EXOC2,ZNF384,1
EXOC2,ZNF404,1
EXOC2,ZNF500,1
EXOC2,ZNF574,1
EXOC2,ZNF667,1
EXOC2,ZNF776,1
EXOC2,ZNF828,1
EXOC2,ZSCAN21,1
FBXO41,MAEL,1
FBXO41,MXD4,1
FBXO41,NFIC,1
FBXO41,ZNF511,1
FGD1,HOPX,1
FGD1,JAZF1,1
FGD1,KLF5,1
FGD1,MAF,1
FGD1,MAFB,1
FGD1,MBNL1,1
FGD1,MBNL2,1
FGD1,MYST2,1
FGD1,NR1D2,1
FGD1,NR3C1,1
FGD1,PBX1,1
FGD1,SETBP1,1
FGD1,SMAD1,1
FGD1,SOX5,1
FGD1,STAT6,1
FGD1,THAP5,1
FGD1,TRPS1,1
FGD1,ZBTB4,1
FGD1,ZC3H4,1
FGD1,ZFP37,1
FGD1,ZFPM2,1
FGD1,ZNF133,1
FGD1,ZNF184,1
FGD1,ZNF22,1
FGD1,ZNF311,1
FGD1,ZNF34,1
FGD1,ZNF608,1
FGD1,ZNF776,1
FGD1,ZUFSP,1
FOSL2,SETDB1,1
FOSL2,STAT6,1
FOSL2,ZC3H4,1
FOSL2,ZNF133,1
FOSL2,ZNF34,1
FOSL2,ZNF609,1
FOXK2,HOPX,1
FOXK2,JAZF1,1
FOXK2,KLF5,1
FOXK2,MAF,1
FOXK2,MAFK,1
FOXK2,MBNL1,1
FOXK2,MRRF,1
FOXK2,MYCN,1
FOXK2,NFKB1,1
FOXK2,RBM22,1
FOXK2,RC3H1,1
FOXK2,RIOK2,1
FOXK2,SETDB1,1
FOXK2,SMAD1,1
FOXK2,STAT6,1
FOXK2,ZBTB26,1
FOXK2,ZBTB4,1
FOXK2,ZC3H4,1
FOXK2,ZFP37,1
FOXK2,ZFPM2,1
FOXK2,ZNF133,1
FOXK2,ZNF184,1
FOXK2,ZNF22,1
FOXK2,ZNF268,1
FOXK2,ZNF311,1
FOXK2,ZNF317,1
FOXK2,ZNF34,1
FOXK2,ZNF398,1
FOXK2,ZNF570,1
FOXK2,ZNF577,1
FOXK2,ZNF589,1
FOXK2,ZNF608,1
FOXK2,ZNF609,1
FOXP4,HOPX,1
FOXP4,KLF3,1
FOXP4,LASS5,1
FOXP4,PATZ1,1
FOXP4,RAPGEF4,1
FOXP4,RARB,1
FOXP4,RC3H1,1
FOXP4,STAT6,1
FOXP4,ZBTB26,1
FOXP4,ZFPM2,1
FOXP4,ZNF184,1
FOXP4,ZNF22,1
FOXP4,ZNF34,1
FOXP4,ZNF385B,1
FOXP4,ZNF398,1
FOXP4,ZNF43,1
FOXP4,ZNF432,1
FOXP4,ZNF574,1
FOXP4,ZUFSP,1
FOXQ1,HOXC8,1
FOXQ1,MGA,1
FOXQ1,MSX1,1
FOXQ1,MTF1,1
FOXQ1,MXD4,1
FOXQ1,PPP1R13L,1
FOXQ1,RCOR3,1
FOXQ1,RUNX2,1
FOXQ1,SHPRH,1
FOXQ1,THAP10,1
FOXQ1,ZBTB26,1
FOXQ1,ZBTB4,1
FOXQ1,ZBTB45,1
FOXQ1,ZNF14,1
FOXQ1,ZNF22,1
FOXQ1,ZNF226,1
FOXQ1,ZNF273,1
FOXQ1,ZNF334,1
FOXQ1,ZNF493,1
FOXQ1,ZNF503,1
FOXQ1,ZNF511,1
FOXQ1,ZNF550,1
FOXQ1,ZNF787,1
GATAD1,KLF5,1
GATAD1,KLF6,1
GATAD1,MAF,1
GATAD1,MAFB,1
GATAD1,MRRF,1
GATAD1,PBX1,1
GATAD1,SMAD1,1
GATAD1,SOX5,1
GATAD1,TRPS1,1
GATAD1,ZBTB4,1
GATAD1,ZC3H4,1
GATAD1,ZNF184,1
GATAD1,ZNF22,1
GATAD1,ZNF311,1
GATAD1,ZNF34,1
GATAD1,ZNF608,1
GATAD1,ZNF667,1
GATAD1,ZNF776,1
GATAD1,ZUFSP,1
GATAD2B,HOPX,1
GATAD2B,MAEL,1
GATAD2B,MAF,1
GATAD2B,MAFK,1
GATAD2B,MGA,1
GATAD2B,NFIC,1
GATAD2B,RBM22,1
GATAD2B,RC3H1,1
GATAD2B,RCOR3,1
GATAD2B,STAT6,1
GATAD2B,TRIT1,1
GATAD2B,ZBTB26,1
GATAD2B,ZFPM2,1
GATAD2B,ZNF133,1
GATAD2B,ZNF268,1
GATAD2B,ZNF320,1
GATAD2B,ZNF34,1
GATAD2B,ZNF398,1
GATAD2B,ZNF550,1
GATAD2B,ZNF565,1
GATAD2B,ZNF577,1
GATAD2B,ZNF609,1
GLI3,ZNF667,1
GPR123,PATZ1,1
GPR123,RARB,1
GPR123,SSRP1,1
GPR123,TFAP4,1
GPR123,ZNF544,1
GRHL1,IRF9,1
GRHL1,ZNF43,1
GRHL1,ZNF513,1
GRHL1,ZNF639,1
GRHL1,ZNF692,1
GRHL1,ZNFX1,1
GTF2E2,IKZF5,1
GTF2F1,H1FX,1
GTF2F1,HES6,1
GTF2F1,HSF2,1
GTF2F1,KLF5,1
GTF2F1,KLF6,1
GTF2F1,MAF,1
GTF2F1,MAFB,1
GTF2F1,NEUROD1,1
GTF2F1,POLR2L,1
GTF2F1,PRR3,1
GTF2F1,PRRX1,1
GTF2F1,SKI,1
GTF2F1,SOX1,1
GTF2F1,SOX6,1
GTF2F1,STAT2,1
GTF2F1,THAP5,1
GTF2F1,TRPS1,1
GTF2F1,UNKL,1
GTF2F1,ZC3H4,1
GTF2F1,ZHX3,1
GTF2F1,ZNF22,1
GTF2F1,ZNF223,1
GTF2F1,ZNF384,1
GTF2F1,ZNF513,1
GTF2F1,ZNF574,1
GTF2F1,ZNF697,1
GTF2F1,ZNF776,1
GTF2F1,ZSCAN21,1
H1FX,HES4,1
H1FX,HES6,1
H1FX,HEYL,1
H1FX,HSF2,1
H1FX,KLF5,1
H1FX,KLF6,1
H1FX,LARP1,1
H1FX,NFAT5,1
H1FX,NR2F2,1
H1FX,POLE4,1
H1FX,POLR2L,1
H1FX,PPP1R10,1
H1FX,PRR3,1
H1FX,PRRX1,1
H1FX,RFX1,1
H1FX,SKI,1
H1FX,SOX1,1
H1FX,SOX6,1
H1FX,SP8,1
H1FX,STAT2,1
H1FX,TFAM,1
H1FX,THAP5,1
H1FX,TRIM3,1
H1FX,TRPS1,1
H1FX,UNKL,1
H1FX,VPS72,1
H1FX,ZBED3,1
H1FX,ZC3H4,1
H1FX,ZFR2,1
H1FX,ZKSCAN1,1
H1FX,ZNF154,1
H1FX,ZNF200,1
H1FX,ZNF213,1
H1FX,ZNF22,1
H1FX,ZNF223,1
H1FX,ZNF273,1
H1FX,ZNF280B,1
H1FX,ZNF384,1
H1FX,ZNF48,1
H1FX,ZNF513,1
H1FX,ZNF583,1
H1FX,ZNF606,1
H1FX,ZNF639,1
H1FX,ZNF667,1
H1FX,ZNF697,1
H1FX,ZNF776,1
H1FX,ZNF787,1
H1FX,ZNFX1,1
H1FX,ZSCAN21,1
HES4,HES6,1
HES4,HEYL,1
HES4,MTF1,1
HES4,NFAT5,1
HES4,POLR2L,1
HES4,RUNX2,1
HES4,SOX1,1
HES4,UNKL,1
HES4,ZBED3,1
HES4,ZBTB4,1
HES4,ZBTB45,1
HES4,ZFR2,1
HES4,ZNF200,1
HES4,ZNF22,1
HES4,ZNF223,1
HES4,ZNF273,1
HES4,ZNF48,1
HES4,ZNF513,1
HES4,ZNF639,1
HES4,ZNF697,1
HES4,ZNF787,1
HES6,HEYL,1
HES6,HSF2,1
HES6,POLR2L,1
HES6,REPIN1,1
HES6,SOX1,1
HES6,TFCP2,1
HES6,THAP5,1
HES6,UNKL,1
HES6,ZBED3,1
HES6,ZIC2,1
HES6,ZKSCAN1,1
HES6,ZNF200,1
HES6,ZNF213,1
HES6,ZNF22,1
HES6,ZNF223,1
HES6,ZNF280B,1
HES6,ZNF384,1
HES6,ZNF394,1
HES6,ZNF48,1
HES6,ZNF513,1
HES6,ZNF697,1
HES6,ZSCAN21,1
HEYL,NFAT5,1
HEYL,SOX1,1
HEYL,UNKL,1
HEYL,ZBED3,1
HEYL,ZNF14,1
HEYL,ZNF213,1
HEYL,ZNF273,1
HEYL,ZNF48,1
HIC2,LASS5,1
HIC2,THAP5,1
HIC2,ZFPM2,1
HIC2,ZNF133,1
HIC2,ZNF184,1
HIC2,ZNF281,1
HIC2,ZNF34,1
HIC2,ZNF574,1
HIC2,ZNF577,1
HIC2,ZNF776,1
HOPX,JAZF1,1
HOPX,MAF,1
HOPX,MBNL1,1
HOPX,MBNL2,1
HOPX,MYCN,1
HOPX,MYST4,1
HOPX,NFIC,1
HOPX,NR1D2,1
HOPX,NR3C1,1
HOPX,RC3H1,1
HOPX,RIOK2,1
HOPX,SETBP1,1
HOPX,STAT6,1
HOPX,TRIT1,1
HOPX,ZBTB26,1
HOPX,ZFP37,1
HOPX,ZFPM2,1
HOPX,ZNF133,1
HOPX,ZNF184,1
HOPX,ZNF22,1
HOPX,ZNF34,1
HOPX,ZNF577,1
HOPX,ZNF589,1
HOPX,ZNF609,1
HOXC8,MGA,1
HOXC8,RCOR3,1
HOXC8,RUNX2,1
HOXC8,ZNF493,1
HSF2,KLF5,1
HSF2,KLF6,1
HSF2,LARP1,1
HSF2,MAF,1
HSF2,MAFB,1
HSF2,NEUROD1,1
HSF2,PATZ1,1
HSF2,PRDM2,1
HSF2,RAPGEF4,1
HSF2,RFX1,1
HSF2,SKI,1
HSF2,SMAD9,1
HSF2,SOX1,1
HSF2,SOX6,1
HSF2,SOX9,1
HSF2,TFAM,1
HSF2,THAP5,1
HSF2,TRPS1,1
HSF2,VPS72,1
HSF2,ZC3H15,1
HSF2,ZC3H4,1
HSF2,ZFR2,1
HSF2,ZHX3,1
HSF2,ZNF154,1
HSF2,ZNF184,1
HSF2,ZNF22,1
HSF2,ZNF223,1
HSF2,ZNF384,1
HSF2,ZNF385B,1
HSF2,ZNF404,1
HSF2,ZNF43,1
HSF2,ZNF432,1
HSF2,ZNF512,1
HSF2,ZNF574,1
HSF2,ZNF667,1
HSF2,ZNF776,1
HSF2,ZSCAN21,1
HSF2,ZUFSP,1
ID4,MYBL1,1
ID4,RAPGEF4,1
ID4,SOX9,1
ID4,TBX10,1
ID4,THAP5,1
ID4,ZNF22,1
ID4,ZNF223,1
IKZF5,ZNF395,1
IRF9,ZNF43,1
IRF9,ZNF606,1
JAZF1,KLF5,1
JAZF1,MAF,1
JAZF1,MAFB,1
JAZF1,MBNL1,1
JAZF1,MBNL2,1
JAZF1,NR3C1,1
JAZF1,PBX1,1
JAZF1,RIOK2,1
JAZF1,SETBP1,1
JAZF1,SMAD1,1
JAZF1,SOX5,1
JAZF1,STAT6,1
JAZF1,ZBTB4,1
JAZF1,ZFP37,1
JAZF1,ZFPM2,1
JAZF1,ZNF184,1
JAZF1,ZNF22,1
JAZF1,ZNF311,1
JAZF1,ZNF34,1
JAZF1,ZNF608,1
JRKL,ZNF562,1
KLF13,MYST4,1
KLF13,NEUROD1,1
KLF13,RAPGEF4,1
KLF13,RARB,1
KLF13,SMAD9,1
KLF13,TFAP4,1
KLF13,THAP5,1
KLF13,ZNF22,1
KLF13,ZNF223,1
KLF13,ZNF385B,1
KLF13,ZNF43,1
KLF13,ZNF432,1
KLF13,ZNF574,1
KLF13,ZUFSP,1
KLF15,KLF5,1
KLF15,KLF6,1
KLF15,LASS5,1
KLF15,TRPS1,1
KLF15,ZNF133,1
KLF15,ZNF184,1
KLF15,ZNF277,1
KLF15,ZNF34,1
KLF15,ZNF574,1
KLF15,ZNF776,1
KLF15,ZSCAN21,1
KLF3,KLF5,1
KLF3,LASS5,1
KLF3,PATZ1,1
KLF3,RC3H1,1
KLF3,STAT6,1
KLF3,TRIT1,1
KLF3,ZNF133,1
KLF3,ZNF22,1
KLF3,ZNF281,1
KLF3,ZNF34,1
KLF3,ZNF398,1
KLF3,ZNF500,1
KLF3,ZNF512,1
KLF3,ZNF574,1
KLF3,ZNF608,1
KLF3,ZNF738,1
KLF3,ZNF776,1
KLF3,ZNF828,1
KLF3,ZUFSP,1
KLF5,KLF6,1
KLF5,LARP1,1
KLF5,LASS5,1
KLF5,MAF,1
KLF5,MAFB,1
KLF5,MBNL1,1
KLF5,MBNL2,1
KLF5,MRRF,1
KLF5,MYCN,1
KLF5,MYST2,1
KLF5,MYT1L,1
KLF5,NEUROD1,1
KLF5,NFKB1,1
KLF5,NOC3L,1
KLF5,NR1D2,1
KLF5,NR2C1,1
KLF5,NR3C1,1
KLF5,PATZ1,1
KLF5,PBX1,1
KLF5,POLR2L,1
KLF5,PRDM2,1
KLF5,PRRX1,1
KLF5,RAPGEF4,1
KLF5,RFX1,1
KLF5,RIOK2,1
KLF5,SETBP1,1
KLF5,SKI,1
KLF5,SMAD1,1
KLF5,SMAD9,1
KLF5,SMARCA5,1
KLF5,SOX5,1
KLF5,SOX6,1
KLF5,STAT2,1
KLF5,TFAM,1
KLF5,THAP5,1
KLF5,TRPS1,1
KLF5,ZBTB4,1
KLF5,ZC3H15,1
KLF5,ZC3H4,1
KLF5,ZFR2,1
KLF5,ZHX3,1
KLF5,ZNF133,1
KLF5,ZNF154,1
KLF5,ZNF184,1
KLF5,ZNF22,1
KLF5,ZNF223,1
KLF5,ZNF311,1
KLF5,ZNF317,1
KLF5,ZNF34,1
KLF5,ZNF384,1
KLF5,ZNF385B,1
KLF5,ZNF404,1
KLF5,ZNF43,1
KLF5,ZNF432,1
KLF5,ZNF500,1
KLF5,ZNF512,1
KLF5,ZNF574,1
KLF5,ZNF589,1
KLF5,ZNF608,1
KLF5,ZNF667,1
KLF5,ZNF738,1
KLF5,ZNF776,1
KLF5,ZNF786,1
KLF5,ZSCAN21,1
KLF5,ZUFSP,1
KLF6,LARP1,1
KLF6,MAF,1
KLF6,MAFB,1
KLF6,MYST2,1
KLF6,MYT1L,1
KLF6,NOC3L,1
KLF6,PBX1,1
KLF6,POLR2L,1
KLF6,PRDM2,1
KLF6,PRR3,1
KLF6,PRRX1,1
KLF6,SKI,1
KLF6,SOX1,1
KLF6,SOX5,1
KLF6,SOX6,1
KLF6,STAT2,1
KLF6,TFAM,1
KLF6,THAP5,1
KLF6,TRIM3,1
KLF6,TRPS1,1
KLF6,ZC3H4,1
KLF6,ZFR2,1
KLF6,ZHX3,1
KLF6,ZNF154,1
KLF6,ZNF184,1
KLF6,ZNF22,1
KLF6,ZNF223,1
KLF6,ZNF280B,1
KLF6,ZNF34,1
KLF6,ZNF384,1
KLF6,ZNF404,1
KLF6,ZNF500,1
KLF6,ZNF512,1
KLF6,ZNF513,1
KLF6,ZNF574,1
KLF6,ZNF606,1
KLF6,ZNF667,1
KLF6,ZNF697,1
KLF6,ZNF738,1
KLF6,ZNF776,1
KLF6,ZNF828,1
KLF6,ZSCAN21,1
KLF6,ZUFSP,1
LARP1,MAF,1
LARP1,MAFB,1
LARP1,MYT1L,1
LARP1,STAT2,1
LARP1,TFAM,1
LARP1,THAP5,1
LARP1,TRPS1,1
LARP1,ZNF184,1
LARP1,ZNF22,1
LARP1,ZNF223,1
LARP1,ZNF34,1
LARP1,ZNF384,1
LARP1,ZNF513,1
LARP1,ZNF574,1
LARP1,ZNF667,1
LARP1,ZNF776,1
LARP1,ZSCAN21,1
LARP6,SSRP1,1
LARP6,ZNF544,1
LASS5,NFIC,1
LASS5,SETBP1,1
LASS5,SETDB1,1
LASS5,STAT6,1
LASS5,THAP5,1
LASS5,TRIT1,1
LASS5,TRPS1,1
LASS5,ZFP28,1
LASS5,ZFP37,1
LASS5,ZFPM2,1
LASS5,ZNF133,1
LASS5,ZNF184,1
LASS5,ZNF22,1
LASS5,ZNF277,1
LASS5,ZNF281,1
LASS5,ZNF34,1
LASS5,ZNF398,1
LASS5,ZNF570,1
LASS5,ZNF574,1
LASS5,ZNF577,1
LASS5,ZNF738,1
LASS5,ZNF776,1
LASS5,ZNF828,1
MAEL,MGA,1
MAEL,NFIC,1
MAEL,RC3H1,1
MAEL,SHPRH,1
MAEL,STAT6,1
MAEL,ZBTB26,1
MAEL,ZFPM2,1
MAEL,ZNF133,1
MAEL,ZNF34,1
MAEL,ZNF550,1
MAEL,ZNF565,1
MAEL,ZNF577,1
MAEL,ZNF609,1
MAF,MAFB,1
MAF,MAFK,1
MAF,MBNL1,1
MAF,MBNL2,1
MAF,MRRF,1
MAF,MSX1,1
MAF,MTF1,1
MAF,MYCN,1
MAF,MYST2,1
MAF,MYT1L,1
MAF,NEUROD1,1
MAF,NFKB1,1
MAF,NOC3L,1
MAF,NR1D2,1
MAF,NR2C1,1
MAF,NR3C1,1
MAF,PBX1,1
MAF,POLR2L,1
MAF,PPP1R13L,1
MAF,PRDM2,1
MAF,PRRX1,1
MAF,RBM22,1
MAF,RC3H1,1
MAF,RCOR3,1
MAF,RIOK2,1
MAF,SETBP1,1
MAF,SKI,1
MAF,SMAD1,1
MAF,SMAD9,1
MAF,SOX5,1
MAF,SOX6,1
MAF,STAT2,1
MAF,STAT6,1
MAF,TFAM,1
MAF,THAP10,1
MAF,THAP5,1
MAF,TRPS1,1
MAF,ZBTB26,1
MAF,ZBTB4,1
MAF,ZC3H15,1
MAF,ZC3H4,1
MAF,ZFPM2,1
MAF,ZHX3,1
MAF,ZNF184,1
MAF,ZNF22,1
MAF,ZNF223,1
MAF,ZNF311,1
MAF,ZNF317,1
MAF,ZNF322A,1
MAF,ZNF34,1
MAF,ZNF384,1
MAF,ZNF404,1
MAF,ZNF512,1
MAF,ZNF550,1
MAF,ZNF574,1
MAF,ZNF608,1
MAF,ZNF667,1
MAF,ZNF776,1
MAF,ZSCAN21,1
MAFB,MBNL1,1
MAFB,MBNL2,1
MAFB,MRRF,1
MAFB,MYCN,1
MAFB,MYST2,1
MAFB,MYT1L,1
MAFB,NEUROD1,1
MAFB,NFKB1,1
MAFB,NOC3L,1
MAFB,NR1D2,1
MAFB,NR2C1,1
MAFB,PBX1,1
MAFB,POLR2L,1
MAFB,PRDM2,1
MAFB,PRRX1,1
MAFB,RIOK2,1
MAFB,SETBP1,1
MAFB,SKI,1
MAFB,SMAD1,1
MAFB,SMAD9,1
MAFB,SOX5,1
MAFB,SOX6,1
MAFB,STAT2,1
MAFB,TFAM,1
MAFB,THAP5,1
MAFB,TRPS1,1
MAFB,ZBTB4,1
MAFB,ZC3H15,1
MAFB,ZC3H4,1
MAFB,ZHX3,1
MAFB,ZNF184,1
MAFB,ZNF22,1
MAFB,ZNF223,1
MAFB,ZNF311,1
MAFB,ZNF317,1
MAFB,ZNF322A,1
MAFB,ZNF34,1
MAFB,ZNF384,1
MAFB,ZNF404,1
MAFB,ZNF512,1
MAFB,ZNF574,1
MAFB,ZNF608,1
MAFB,ZNF667,1
MAFB,ZNF776,1
MAFB,ZSCAN21,1
MAFK,MSX1,1
MAFK,MTF1,1
MAFK,PPP1R13L,1
MAFK,RBM22,1
MAFK,RC3H1,1
MAFK,RCOR3,1
MAFK,STAT6,1
MAFK,THAP10,1
MAFK,ZBTB26,1
MAFK,ZNF22,1
MAFK,ZNF550,1
MBNL1,MBNL2,1
MBNL1,MYST2,1
MBNL1,NFKB1,1
MBNL1,NR1D2,1
MBNL1,NR3C1,1
MBNL1,PBX1,1
MBNL1,RIOK2,1
MBNL1,SETBP1,1
MBNL1,SOX5,1
MBNL1,STAT6,1
MBNL1,THAP5,1
MBNL1,ZBTB4,1
MBNL1,ZC3H4,1
MBNL1,ZFPM2,1
MBNL1,ZNF184,1
MBNL1,ZNF22,1
MBNL1,ZNF311,1
MBNL1,ZNF34,1
MBNL1,ZNF608,1
MBNL2,MRRF,1
MBNL2,MYST2,1
MBNL2,NR1D2,1
MBNL2,NR3C1,1
MBNL2,PBX1,1
MBNL2,PRDM2,1
MBNL2,RIOK2,1
MBNL2,SETBP1,1
MBNL2,SMAD1,1
MBNL2,SMAD9,1
MBNL2,SOX5,1
MBNL2,STAT6,1
MBNL2,THAP5,1
MBNL2,ZBTB4,1
MBNL2,ZC3H4,1
MBNL2,ZFPM2,1
MBNL2,ZNF184,1
MBNL2,ZNF22,1
MBNL2,ZNF311,1
MBNL2,ZNF34,1
MBNL2,ZNF608,1
MGA,MXD4,1
MGA,RC3H1,1
MGA,RCOR3,1
MGA,RUNX2,1
MGA,SHPRH,1
MGA,ZBTB26,1
MGA,ZNF22,1
MGA,ZNF226,1
MGA,ZNF334,1
MGA,ZNF511,1
MGA,ZNF550,1
MGA,ZNF565,1
MGA,ZNF781,1
MLXIP,RCOR3,1
MLXIP,STAT6,1
MLXIP,ZNF22,1
MLXIP,ZNF550,1
MNT,SMAD9,1
MNT,SOX9,1
MRRF,MYT1L,1
MRRF,NOC3L,1
MRRF,RIOK2,1
MRRF,THAP5,1
MRRF,TRPS1,1
MRRF,ZC3H4,1
MRRF,ZC3H8,1
MRRF,ZFPM2,1
MRRF,ZNF184,1
MRRF,ZNF22,1
MRRF,ZNF311,1
MRRF,ZNF317,1
MRRF,ZNF34,1
MRRF,ZNF608,1
MRRF,ZNF776,1
MRRF,ZNF786,1
MSX1,MTF1,1
MSX1,ZKSCAN1,1
MTF1,PPP1R13L,1
MTF1,RCOR3,1
MTF1,RUNX2,1
MTF1,ZNF273,1
MTF1,ZNF503,1
MTF1,ZNF550,1
MTF1,ZNF787,1
MXD4,RUNX2,1
MXD4,ZNF22,1
MXD4,ZNF226,1
MXD4,ZNF273,1
MXD4,ZNF334,1
MXD4,ZNF511,1
MXD4,ZNF781,1
MYBL1,NOC3L,1
MYBL1,TBX10,1
MYBL1,THAP5,1
MYBL1,XBP1,1
MYBL1,ZC3H4,1
MYBL1,ZNF22,1
MYBL1,ZNF223,1
MYBL1,ZNFX1,1
MYCN,PBX1,1
MYCN,SETBP1,1
MYCN,SMAD1,1
MYCN,SMAD9,1
MYCN,SOX6,1
MYCN,STAT6,1
MYCN,THAP5,1
MYCN,ZBTB4,1
MYCN,ZC3H15,1
MYCN,ZC3H4,1
MYCN,ZFP37,1
MYCN,ZNF133,1
MYCN,ZNF22,1
MYCN,ZNF311,1
MYCN,ZNF34,1
MYCN,ZNF512,1
MYCN,ZNF570,1
MYCN,ZNF608,1
MYCN,ZNF776,1
MYST2,NR1D2,1
MYST2,NR3C1,1
MYST2,PBX1,1
MYST2,PRDM2,1
MYST2,SOX5,1
MYST2,TFAM,1
MYST2,THAP5,1
MYST2,TRPS1,1
MYST2,ZC3H4,1
MYST2,ZHX3,1
MYST2,ZNF133,1
MYST2,ZNF184,1
MYST2,ZNF311,1
MYST2,ZNF34,1
MYST2,ZNF404,1
MYST2,ZNF574,1
MYST2,ZNF667,1
MYST2,ZNF776,1
MYST2,ZUFSP,1
MYST4,NEUROD1,1
MYST4,RAPGEF4,1
MYST4,SMAD9,1
MYST4,SOX9,1
MYST4,STAT6,1
MYST4,TFAP4,1
MYST4,THAP5,1
MYST4,ZC3H4,1
MYST4,ZFPM2,1
MYST4,ZNF133,1
MYST4,ZNF22,1
MYST4,ZNF281,1
MYST4,ZNF34,1
MYST4,ZNF385B,1
MYST4,ZNF577,1
MYT1L,NOC3L,1
MYT1L,PBX1,1
MYT1L,SETBP1,1
MYT1L,SOX5,1
MYT1L,THAP5,1
MYT1L,TRPS1,1
MYT1L,ZC3H4,1
MYT1L,ZNF184,1
MYT1L,ZNF22,1
MYT1L,ZNF223,1
MYT1L,ZNF311,1
MYT1L,ZNF34,1
MYT1L,ZNF513,1
MYT1L,ZNF776,1
MYT1L,ZSCAN21,1
NEUROD1,RAPGEF4,1
NEUROD1,SKI,1
NEUROD1,SMAD9,1
NEUROD1,SOX6,1
NEUROD1,SOX9,1
NEUROD1,TFAP4,1
NEUROD1,THAP5,1
NEUROD1,ZC3H4,1
NEUROD1,ZNF22,1
NEUROD1,ZNF223,1
NEUROD1,ZNF322A,1
NEUROD1,ZNF385B,1
NEUROD1,ZNF512,1
NEUROD1,ZNF574,1
NEUROD1,ZNF776,1
NFAT5,NR2F2,1
NFAT5,POLE4,1
NFAT5,PRR3,1
NFAT5,RNF114,1
NFAT5,SOX1,1
NFAT5,UNKL,1
NFAT5,ZNF154,1
NFAT5,ZNF200,1
NFAT5,ZNF213,1
NFAT5,ZNF22,1
NFAT5,ZNF223,1
NFAT5,ZNF273,1
NFAT5,ZNF280B,1
NFAT5,ZNF384,1
NFAT5,ZNF48,1
NFAT5,ZNF513,1
NFAT5,ZNF583,1
NFAT5,ZNF606,1
NFAT5,ZNF639,1
NFAT5,ZNF697,1
NFAT5,ZNF787,1
NFAT5,ZNFX1,1
NFIC,RC3H1,1
NFIC,RCOR3,1
NFIC,STAT6,1
NFIC,ZBTB26,1
NFIC,ZFPM2,1
NFIC,ZNF133,1
NFIC,ZNF22,1
NFIC,ZNF34,1
NFIC,ZNF550,1
NFIC,ZNF565,1
NFIC,ZNF577,1
NFIC,ZNF609,1
NFKB1,NOC3L,1
NFKB1,PBX1,1
NFKB1,RIOK2,1
NFKB1,SMARCA5,1
NFKB1,ZC3H4,1
NFKB1,ZNF184,1
NFKB1,ZNF311,1
NFXL1,ZNF281,1
NFXL1,ZNF570,1
NFYB,ZNF263,1
NOC3L,RIOK2,1
NOC3L,SKI,1
NOC3L,SMARCA5,1
NOC3L,THAP5,1
NOC3L,TRPS1,1
NOC3L,ZC3H4,1
NOC3L,ZNF24,1
NOC3L,ZNF311,1
NOC3L,ZNF34,1
NOC3L,ZNF608,1
NOC3L,ZNF776,1
NR1D2,NR3C1,1
NR1D2,PRDM2,1
NR1D2,RIOK2,1
NR1D2,STAT6,1
NR1D2,THAP5,1
NR1D2,ZC3H4,1
NR1D2,ZFPM2,1
NR1D2,ZNF133,1
NR1D2,ZNF184,1
NR1D2,ZNF22,1
NR1D2,ZNF311,1
NR1D2,ZNF34,1
NR1D2,ZNF385B,1
NR1D2,ZNF404,1
NR1D2,ZNF43,1
NR1D2,ZNF432,1
NR1D2,ZNF500,1
NR1D2,ZNF574,1
NR1D2,ZNF776,1
NR2C1,ZC3H4,1
NR2F2,SOX1,1
NR2F2,TBX10,1
NR2F2,UNKL,1
NR2F2,ZNF213,1
NR2F2,ZNF48,1
NR2F2,ZNF513,1
NR2F2,ZNF606,1
NR2F2,ZNF639,1
NR2F2,ZNF692,1
NR2F2,ZNF697,1
NR2F2,ZNF787,1
NR2F2,ZNFX1,1
NR3C1,PBX1,1
NR3C1,RAPGEF4,1
NR3C1,RIOK2,1
NR3C1,SETBP1,1
NR3C1,SMAD9,1
NR3C1,SOX5,1
NR3C1,STAT6,1
NR3C1,THAP5,1
NR3C1,ZBTB4,1
NR3C1,ZFPM2,1
NR3C1,ZNF133,1
NR3C1,ZNF184,1
NR3C1,ZNF22,1
NR3C1,ZNF311,1
NR3C1,ZNF34,1
NR3C1,ZNF385B,1
NR3C1,ZNF608,1
PATZ1,PRDM2,1
PATZ1,RAPGEF4,1
PATZ1,RARB,1
PATZ1,RC3H1,1
PATZ1,SMAD9,1
PATZ1,STAT6,1
PATZ1,TFAP4,1
PATZ1,THAP5,1
PATZ1,TRIT1,1
PATZ1,ZC3H4,1
PATZ1,ZNF133,1
PATZ1,ZNF184,1
PATZ1,ZNF22,1
PATZ1,ZNF34,1
PATZ1,ZNF385B,1
PATZ1,ZNF43,1
PATZ1,ZNF432,1
PATZ1,ZNF500,1
PATZ1,ZNF512,1
PATZ1,ZUFSP,1
PBX1,PRDM2,1
PBX1,PRRX1,1
PBX1,SETBP1,1
PBX1,SMAD1,1
PBX1,SOX5,1
PBX1,SOX6,1
PBX1,STAT2,1
PBX1,STAT6,1
PBX1,THAP5,1
PBX1,TRPS1,1
PBX1,ZBTB4,1
PBX1,ZC3H15,1
PBX1,ZC3H4,1
PBX1,ZFP37,1
PBX1,ZNF184,1
PBX1,ZNF22,1
PBX1,ZNF311,1
PBX1,ZNF317,1
PBX1,ZNF34,1
PBX1,ZNF404,1
PBX1,ZNF512,1
PBX1,ZNF589,1
PBX1,ZNF608,1
PBX1,ZNF776,1
POLE4,PRR3,1
POLE4,RUNX2,1
POLE4,SOX1,1
POLE4,ZNF154,1
POLE4,ZNF273,1
POLE4,ZNF280B,1
POLE4,ZNF384,1
POLE4,ZNF48,1
POLE4,ZNF513,1
POLE4,ZNF606,1
POLE4,ZNF639,1
POLE4,ZNF697,1
POLE4,ZNF787,1
POLE4,ZSCAN21,1
POLR2L,SOX1,1
POLR2L,THAP5,1
POLR2L,ZC3H4,1
POLR2L,ZNF22,1
POLR2L,ZNF223,1
POLR2L,ZNF513,1
PPP1R10,SP8,1
PPP1R10,ZC3H4,1
PPP1R10,ZNF280B,1
PPP1R10,ZNF281,1
PPP1R10,ZNF34,1
PPP1R10,ZNF596,1
PPP1R10,ZNF776,1
PPP1R13L,RBM22,1
PPP1R13L,RC3H1,1
PPP1R13L,RCOR3,1
PPP1R13L,ZBTB26,1
PPP1R13L,ZNF503,1
PPP1R13L,ZNF550,1
PRDM16,RAPGEF4,1
PRDM16,TFAP4,1
PRDM2,RAPGEF4,1
PRDM2,SMAD9,1
PRDM2,SOX6,1
PRDM2,THAP5,1
PRDM2,TRPS1,1
PRDM2,ZC3H4,1
PRDM2,ZHX3,1
PRDM2,ZNF184,1
PRDM2,ZNF22,1
PRDM2,ZNF223,1
PRDM2,ZNF311,1
PRDM2,ZNF34,1
PRDM2,ZNF385B,1
PRDM2,ZNF404,1
PRDM2,ZNF43,1
PRDM2,ZNF432,1
PRDM2,ZNF500,1
PRDM2,ZNF512,1
PRDM2,ZNF574,1
PRDM2,ZNF776,1
PRDM2,ZUFSP,1
PRR3,PRRX1,1
PRR3,SP8,1
PRR3,STAT2,1
PRR3,TRIM3,1
PRR3,TRPS1,1
PRR3,ZNF22,1
PRR3,ZNF223,1
PRR3,ZNF273,1
PRR3,ZNF280B,1
PRR3,ZNF384,1
PRR3,ZNF513,1
PRR3,ZNF606,1
PRR3,ZNF639,1
PRR3,ZNF697,1
PRR3,ZSCAN21,1
PRRX1,STAT2,1
PRRX1,TRIM3,1
PRRX1,TRPS1,1
PRRX1,ZC3H4,1
PRRX1,ZNF154,1
PRRX1,ZNF22,1
PRRX1,ZNF223,1
PRRX1,ZNF384,1
PRRX1,ZNF513,1
PRRX1,ZNF606,1
PRRX1,ZNF776,1
PRRX1,ZSCAN21,1
PSMD11,ZNF124,1
RAPGEF4,RARB,1
RAPGEF4,SMAD9,1
RAPGEF4,SOX9,1
RAPGEF4,STAT6,1
RAPGEF4,TFAP4,1
RAPGEF4,THAP5,1
RAPGEF4,ZC3H4,1
RAPGEF4,ZC3H8,1
RAPGEF4,ZNF133,1
RAPGEF4,ZNF184,1
RAPGEF4,ZNF22,1
RAPGEF4,ZNF295,1
RAPGEF4,ZNF317,1
RAPGEF4,ZNF34,1
RAPGEF4,ZNF385B,1
RAPGEF4,ZNF43,1
RAPGEF4,ZNF432,1
RAPGEF4,ZNF512,1
RARB,STAT6,1
RARB,ZNF184,1
RARB,ZNF295,1
RARB,ZNF385B,1
RARB,ZNF43,1
RARB,ZNF432,1
RARB,ZUFSP,1
RBM22,RC3H1,1
RBM22,RCOR3,1
RBM22,STAT6,1
RBM22,THAP10,1
RBM22,ZBTB26,1
RBM22,ZFPM2,1
RBM22,ZNF22,1
RBM22,ZNF34,1
RBM6,ZNF550,1
RC3H1,RCOR3,1
RC3H1,SETDB1,1
RC3H1,SHPRH,1
RC3H1,STAT6,1
RC3H1,TIGD7,1
RC3H1,TRIT1,1
RC3H1,ZBTB26,1
RC3H1,ZFP37,1
RC3H1,ZFPM2,1
RC3H1,ZNF10,1
RC3H1,ZNF133,1
RC3H1,ZNF22,1
RC3H1,ZNF268,1
RC3H1,ZNF320,1
RC3H1,ZNF34,1
RC3H1,ZNF398,1
RC3H1,ZNF518A,1
RC3H1,ZNF550,1
RC3H1,ZNF565,1
RC3H1,ZNF570,1
RC3H1,ZNF577,1
RC3H1,ZNF609,1
RCOR3,SHPRH,1
RCOR3,STAT6,1
RCOR3,THAP10,1
RCOR3,ZBTB26,1
RCOR3,ZBTB4,1
RCOR3,ZBTB45,1
RCOR3,ZNF22,1
RCOR3,ZNF226,1
RCOR3,ZNF334,1
RCOR3,ZNF493,1
RCOR3,ZNF503,1
RCOR3,ZNF550,1
RCOR3,ZNF565,1
REPIN1,TFCP2,1
REPIN1,ZIC2,1
REPIN1,ZNF213,1
REPIN1,ZNF48,1
RFX1,SMAD9,1
RFX1,TBX10,1
RFX1,THAP5,1
RFX1,TRPS1,1
RFX1,VPS72,1
RFX1,ZC3H4,1
RFX1,ZNF133,1
RFX1,ZNF184,1
RFX1,ZNF22,1
RFX1,ZNF223,1
RFX1,ZNF281,1
RFX1,ZNF34,1
RFX1,ZNF384,1
RFX1,ZNF574,1
RFX1,ZNF776,1
RFX1,ZUFSP,1
RIOK2,STAT6,1
RIOK2,THAP5,1
RIOK2,ZC3H4,1
RIOK2,ZFPM2,1
RIOK2,ZNF184,1
RIOK2,ZNF22,1
RIOK2,ZNF311,1
RIOK2,ZNF34,1
RNF114,RUNX2,1
RNF114,UNKL,1
RNF114,ZNF22,1
RNF114,ZNF226,1
RNF114,ZNF273,1
RNF114,ZNF511,1
RNF114,ZNF513,1
RNF114,ZNF606,1
RNF114,ZNF639,1
RNF114,ZNFX1,1
RUNX2,ZBTB4,1
RUNX2,ZBTB45,1
RUNX2,ZHX2,1
RUNX2,ZKSCAN1,1
RUNX2,ZNF200,1
RUNX2,ZNF22,1
RUNX2,ZNF226,1
RUNX2,ZNF273,1
RUNX2,ZNF334,1
RUNX2,ZNF493,1
RUNX2,ZNF503,1
RUNX2,ZNF511,1
RUNX2,ZNF583,1
RUNX2,ZNF781,1
RUNX2,ZNF787,1
SETBP1,SMAD1,1
SETBP1,SMAD9,1
SETBP1,SOX5,1
SETBP1,STAT6,1
SETBP1,THAP5,1
SETBP1,TRPS1,1
SETBP1,ZBTB4,1
SETBP1,ZC3H4,1
SETBP1,ZFPM2,1
SETBP1,ZNF133,1
SETBP1,ZNF184,1
SETBP1,ZNF22,1
SETBP1,ZNF311,1
SETBP1,ZNF34,1
SETBP1,ZNF577,1
SETBP1,ZNF608,1
SETBP1,ZNF776,1
SETDB1,STAT6,1
SETDB1,ZBTB26,1
SETDB1,ZFPM2,1
SETDB1,ZNF133,1
SETDB1,ZNF22,1
SETDB1,ZNF34,1
SETDB1,ZNF382,1
SETDB1,ZNF398,1
SETDB1,ZNF518A,1
SETDB1,ZNF565,1
SETDB1,ZNF577,1
SETDB1,ZNF609,1
SHPRH,ZBTB26,1
SHPRH,ZNF550,1
SHPRH,ZNF577,1
SHPRH,ZNF609,1
SKI,SMAD9,1
SKI,SOX1,1
SKI,SOX5,1
SKI,SOX6,1
SKI,TFAM,1
SKI,THAP5,1
SKI,TRPS1,1
SKI,ZC3H15,1
SKI,ZC3H4,1
SKI,ZFR2,1
SKI,ZHX3,1
SKI,ZNF22,1
SKI,ZNF223,1
SKI,ZNF404,1
SKI,ZNF512,1
SKI,ZNF776,1
SMAD1,STAT6,1
SMAD1,ZBTB4,1
SMAD1,ZC3H4,1
SMAD1,ZFP37,1
SMAD1,ZFPM2,1
SMAD1,ZNF133,1
SMAD1,ZNF184,1
SMAD1,ZNF22,1
SMAD1,ZNF311,1
SMAD1,ZNF34,1
SMAD1,ZNF570,1
SMAD1,ZNF608,1
SMAD1,ZNF776,1
SMAD9,SOX5,1
SMAD9,SOX6,1
SMAD9,SOX9,1
SMAD9,STAT6,1
SMAD9,THAP5,1
SMAD9,ZC3H15,1
SMAD9,ZC3H4,1
SMAD9,ZNF133,1
SMAD9,ZNF184,1
SMAD9,ZNF22,1
SMAD9,ZNF223,1
SMAD9,ZNF322A,1
SMAD9,ZNF34,1
SMAD9,ZNF385B,1
SMAD9,ZNF512,1
SMAD9,ZNF776,1
SMAD9,ZUFSP,1
SOX1,TBX10,1
SOX1,THAP5,1
SOX1,UNKL,1
SOX1,VPS72,1
SOX1,ZBED3,1
SOX1,ZC3H4,1
SOX1,ZFR2,1
SOX1,ZIC2,1
SOX1,ZKSCAN1,1
SOX1,ZNF154,1
SOX1,ZNF200,1
SOX1,ZNF213,1
SOX1,ZNF22,1
SOX1,ZNF223,1
SOX1,ZNF280B,1
SOX1,ZNF384,1
SOX1,ZNF394,1
SOX1,ZNF48,1
SOX1,ZNF513,1
SOX1,ZNF583,1
SOX1,ZNF606,1
SOX1,ZNF639,1
SOX1,ZNF697,1
SOX1,ZNF787,1
SOX1,ZNFX1,1
SOX1,ZSCAN21,1
SOX5,SOX6,1
SOX5,THAP5,1
SOX5,TRPS1,1
SOX5,ZBTB4,1
SOX5,ZC3H4,1
SOX5,ZNF184,1
SOX5,ZNF22,1
SOX5,ZNF223,1
SOX5,ZNF311,1
SOX5,ZNF34,1
SOX5,ZNF512,1
SOX5,ZNF608,1
SOX5,ZNF776,1
SOX5,ZUFSP,1
SOX6,THAP5,1
SOX6,TRPS1,1
SOX6,ZBTB4,1
SOX6,ZC3H15,1
SOX6,ZC3H4,1
SOX6,ZNF22,1
SOX6,ZNF223,1
SOX6,ZNF311,1
SOX6,ZNF322A,1
SOX6,ZNF384,1
SOX6,ZNF512,1
SOX6,ZNF776,1
SOX9,TFAP4,1
SOX9,THAP5,1
SOX9,ZC3H4,1
SOX9,ZNF281,1
SOX9,ZNF385B,1
SOX9,ZNF394,1
SOX9,ZNF574,1
SP8,TRIM3,1
SP8,ZNF154,1
SP8,ZNF263,1
SP8,ZNF280B,1
SP8,ZNF606,1
SSRP1,ZNF544,1
STAT2,TRPS1,1
STAT2,ZNF22,1
STAT2,ZNF223,1
STAT2,ZNF384,1
STAT2,ZNF513,1
STAT2,ZNF667,1
STAT2,ZNF776,1
STAT2,ZSCAN21,1
STAT6,ZBTB26,1
STAT6,ZBTB4,1
STAT6,ZC3H8,1
STAT6,ZFP37,1
STAT6,ZFPM2,1
STAT6,ZNF133,1
STAT6,ZNF184,1
STAT6,ZNF22,1
STAT6,ZNF268,1
STAT6,ZNF281,1
STAT6,ZNF295,1
STAT6,ZNF311,1
STAT6,ZNF317,1
STAT6,ZNF34,1
STAT6,ZNF385B,1
STAT6,ZNF398,1
STAT6,ZNF43,1
STAT6,ZNF432,1
STAT6,ZNF518A,1
STAT6,ZNF550,1
STAT6,ZNF565,1
STAT6,ZNF570,1
STAT6,ZNF577,1
STAT6,ZNF589,1
STAT6,ZNF608,1
STAT6,ZNF609,1
STAT6,ZNF786,1
STAT6,ZUFSP,1
SUZ12,TBX10,1
SUZ12,UNKL,1
SUZ12,ZNF506,1
SUZ12,ZNF639,1
SUZ12,ZNF692,1
SUZ12,ZNFX1,1
TBX10,THAP5,1
TBX10,ZC3H4,1
TBX10,ZNF213,1
TBX10,ZNF22,1
TBX10,ZNF223,1
TBX10,ZNF384,1
TBX10,ZNF506,1
TBX10,ZNF513,1
TBX10,ZNF639,1
TBX10,ZNF692,1
TERF1,ZNF79,1
TFAM,THAP5,1
TFAM,TRPS1,1
TFAM,ZC3H4,1
TFAM,ZNF184,1
TFAM,ZNF22,1
TFAM,ZNF223,1
TFAM,ZNF34,1
TFAM,ZNF384,1
TFAM,ZNF404,1
TFAM,ZNF512,1
TFAM,ZNF574,1
TFAM,ZNF667,1
TFAM,ZNF776,1
TFAM,ZSCAN21,1
TFAM,ZUFSP,1
TFAP4,THAP5,1
TFAP4,ZNF385B,1
TFAP4,ZNF43,1
TFAP4,ZNF432,1
TFAP4,ZNF574,1
TFCP2,ZNF213,1
TFCP2,ZNF48,1
THAP5,TRPS1,1
THAP5,ZBTB4,1
THAP5,ZC3H15,1
THAP5,ZC3H4,1
THAP5,ZHX3,1
THAP5,ZNF133,1
THAP5,ZNF184,1
THAP5,ZNF22,1
THAP5,ZNF223,1
THAP5,ZNF281,1
THAP5,ZNF311,1
THAP5,ZNF317,1
THAP5,ZNF322A,1
THAP5,ZNF34,1
THAP5,ZNF384,1
THAP5,ZNF385B,1
THAP5,ZNF394,1
THAP5,ZNF404,1
THAP5,ZNF43,1
THAP5,ZNF432,1
THAP5,ZNF512,1
THAP5,ZNF574,1
THAP5,ZNF608,1
THAP5,ZNF667,1
THAP5,ZNF776,1
THAP5,ZNF786,1
THAP5,ZSCAN21,1
THAP5,ZUFSP,1
TIGD7,ZNF133,1
TIGD7,ZNF268,1
TIGD7,ZNF281,1
TIGD7,ZNF34,1
TIGD7,ZNF570,1
TIGD7,ZNF776,1
TRIM3,TRPS1,1
TRIM3,ZNF263,1
TRIM3,ZNF280B,1
TRIM3,ZNF606,1
TRIM3,ZNF639,1
TRIM3,ZSCAN21,1
TRIT1,ZBTB26,1
TRIT1,ZNF133,1
TRIT1,ZNF281,1
TRIT1,ZNF34,1
TRPS1,ZBTB4,1
TRPS1,ZC3H4,1
TRPS1,ZHX3,1
TRPS1,ZNF133,1
TRPS1,ZNF184,1
TRPS1,ZNF22,1
TRPS1,ZNF223,1
TRPS1,ZNF311,1
TRPS1,ZNF34,1
TRPS1,ZNF384,1
TRPS1,ZNF404,1
TRPS1,ZNF43,1
TRPS1,ZNF512,1
TRPS1,ZNF513,1
TRPS1,ZNF574,1
TRPS1,ZNF589,1
TRPS1,ZNF606,1
TRPS1,ZNF608,1
TRPS1,ZNF667,1
TRPS1,ZNF776,1
TRPS1,ZSCAN21,1
TRPS1,ZUFSP,1
UNKL,ZBED3,1
UNKL,ZNF213,1
UNKL,ZNF273,1
UNKL,ZNF280B,1
UNKL,ZNF48,1
UNKL,ZNF513,1
UNKL,ZNF606,1
UNKL,ZNF639,1
UNKL,ZNF692,1
UNKL,ZNF697,1
UNKL,ZNF787,1
UNKL,ZNFX1,1
VPS72,ZNF22,1
VPS72,ZNF223,1
VPS72,ZNF281,1
VPS72,ZNF558,1
XBP1,ZNF43,1
XBP1,ZNF639,1
XBP1,ZNFX1,1
ZBED3,ZNF213,1
ZBED3,ZNF48,1
ZBTB26,ZFP28,1
ZBTB26,ZFPM2,1
ZBTB26,ZNF10,1
ZBTB26,ZNF133,1
ZBTB26,ZNF268,1
ZBTB26,ZNF320,1
ZBTB26,ZNF34,1
ZBTB26,ZNF398,1
ZBTB26,ZNF518A,1
ZBTB26,ZNF550,1
ZBTB26,ZNF565,1
ZBTB26,ZNF570,1
ZBTB26,ZNF577,1
ZBTB26,ZNF609,1
ZBTB4,ZBTB45,1
ZBTB4,ZC3H15,1
ZBTB4,ZC3H4,1
ZBTB4,ZFP37,1
ZBTB4,ZFPM2,1
ZBTB4,ZNF133,1
ZBTB4,ZNF14,1
ZBTB4,ZNF184,1
ZBTB4,ZNF22,1
ZBTB4,ZNF226,1
ZBTB4,ZNF273,1
ZBTB4,ZNF311,1
ZBTB4,ZNF334,1
ZBTB4,ZNF34,1
ZBTB4,ZNF503,1
ZBTB4,ZNF511,1
ZBTB4,ZNF608,1
ZBTB4,ZNF776,1
ZBTB4,ZNF787,1
ZBTB45,ZNF14,1
ZBTB45,ZNF22,1
ZBTB45,ZNF226,1
ZBTB45,ZNF273,1
ZBTB45,ZNF334,1
ZBTB45,ZNF503,1
ZBTB45,ZNF511,1
ZBTB45,ZNF787,1
ZC3H15,ZC3H4,1
ZC3H15,ZHX3,1
ZC3H15,ZNF22,1
ZC3H15,ZNF311,1
ZC3H15,ZNF322A,1
ZC3H15,ZNF512,1
ZC3H15,ZNF776,1
ZC3H15,ZUFSP,1
ZC3H4,ZFR2,1
ZC3H4,ZHX3,1
ZC3H4,ZNF133,1
ZC3H4,ZNF154,1
ZC3H4,ZNF184,1
ZC3H4,ZNF22,1
ZC3H4,ZNF223,1
ZC3H4,ZNF311,1
ZC3H4,ZNF317,1
ZC3H4,ZNF322A,1
ZC3H4,ZNF34,1
ZC3H4,ZNF384,1
ZC3H4,ZNF385B,1
ZC3H4,ZNF404,1
ZC3H4,ZNF43,1
ZC3H4,ZNF432,1
ZC3H4,ZNF512,1
ZC3H4,ZNF574,1
ZC3H4,ZNF608,1
ZC3H4,ZNF667,1
ZC3H4,ZNF776,1
ZC3H4,ZNFX1,1
ZC3H4,ZUFSP,1
ZC3H8,ZNF184,1
ZC3H8,ZNF22,1
ZC3H8,ZNF317,1
ZC3H8,ZNF34,1
ZC3H8,ZNF786,1
ZFP28,ZNF281,1
ZFP28,ZNF34,1
ZFP28,ZNF398,1
ZFP37,ZFPM2,1
ZFP37,ZNF133,1
ZFP37,ZNF22,1
ZFP37,ZNF34,1
ZFP37,ZNF398,1
ZFP37,ZNF570,1
ZFP37,ZNF608,1
ZFP37,ZNF776,1
ZFP37,ZNF828,1
ZFPM2,ZNF133,1
ZFPM2,ZNF184,1
ZFPM2,ZNF22,1
ZFPM2,ZNF268,1
ZFPM2,ZNF281,1
ZFPM2,ZNF311,1
ZFPM2,ZNF34,1
ZFPM2,ZNF398,1
ZFPM2,ZNF565,1
ZFPM2,ZNF570,1
ZFPM2,ZNF577,1
ZFPM2,ZNF608,1
ZFPM2,ZNF609,1
ZFR2,ZNF22,1
ZFR2,ZNF223,1
ZFR2,ZNF667,1
ZHX2,ZNF273,1
ZHX2,ZNF606,1
ZHX2,ZNF787,1
ZHX3,ZNF184,1
ZHX3,ZNF22,1
ZHX3,ZNF223,1
ZHX3,ZNF311,1
ZHX3,ZNF404,1
ZHX3,ZNF512,1
ZHX3,ZNF574,1
ZHX3,ZNF667,1
ZHX3,ZNF776,1
ZHX3,ZUFSP,1
ZIC2,ZNF200,1
ZIC2,ZNF213,1
ZIC2,ZNF48,1
ZKSCAN1,ZNF273,1
ZKSCAN1,ZNF513,1
ZKSCAN1,ZNF697,1
ZKSCAN1,ZNF787,1
ZKSCAN1,ZSCAN21,1
ZNF133,ZNF184,1
ZNF133,ZNF22,1
ZNF133,ZNF268,1
ZNF133,ZNF281,1
ZNF133,ZNF34,1
ZNF133,ZNF398,1
ZNF133,ZNF570,1
ZNF133,ZNF574,1
ZNF133,ZNF577,1
ZNF133,ZNF608,1
ZNF133,ZNF609,1
ZNF133,ZNF776,1
ZNF133,ZUFSP,1
ZNF136,ZNF281,1
ZNF136,ZNF562,1
ZNF14,ZNF22,1
ZNF14,ZNF226,1
ZNF14,ZNF273,1
ZNF14,ZNF493,1
ZNF14,ZNF605,1
ZNF154,ZNF22,1
ZNF154,ZNF223,1
ZNF154,ZNF500,1
ZNF154,ZNF512,1
ZNF154,ZNF512B,1
ZNF154,ZNF513,1
ZNF154,ZNF606,1
ZNF154,ZSCAN21,1
ZNF184,ZNF22,1
ZNF184,ZNF223,1
ZNF184,ZNF295,1
ZNF184,ZNF311,1
ZNF184,ZNF317,1
ZNF184,ZNF34,1
ZNF184,ZNF385B,1
ZNF184,ZNF404,1
ZNF184,ZNF43,1
ZNF184,ZNF432,1
ZNF184,ZNF500,1
ZNF184,ZNF512,1
ZNF184,ZNF574,1
ZNF184,ZNF577,1
ZNF184,ZNF589,1
ZNF184,ZNF608,1
ZNF184,ZNF667,1
ZNF184,ZNF738,1
ZNF184,ZNF776,1
ZNF184,ZNF786,1
ZNF184,ZSCAN21,1
ZNF184,ZUFSP,1
ZNF200,ZNF22,1
ZNF200,ZNF223,1
ZNF200,ZNF273,1
ZNF200,ZNF280B,1
ZNF200,ZNF384,1
ZNF200,ZNF48,1
ZNF200,ZNF513,1
ZNF200,ZNF583,1
ZNF200,ZNF606,1
ZNF200,ZNF639,1
ZNF200,ZNF697,1
ZNF200,ZSCAN21,1
ZNF213,ZNF48,1
ZNF213,ZNF513,1
ZNF213,ZNF639,1
ZNF213,ZNF697,1
ZNF22,ZNF223,1
ZNF22,ZNF226,1
ZNF22,ZNF273,1
ZNF22,ZNF280B,1
ZNF22,ZNF295,1
ZNF22,ZNF311,1
ZNF22,ZNF317,1
ZNF22,ZNF334,1
ZNF22,ZNF34,1
ZNF22,ZNF384,1
ZNF22,ZNF385B,1
ZNF22,ZNF394,1
ZNF22,ZNF398,1
ZNF22,ZNF404,1
ZNF22,ZNF43,1
ZNF22,ZNF432,1
ZNF22,ZNF48,1
ZNF22,ZNF493,1
ZNF22,ZNF511,1
ZNF22,ZNF512,1
ZNF22,ZNF513,1
ZNF22,ZNF570,1
ZNF22,ZNF574,1
ZNF22,ZNF589,1
ZNF22,ZNF606,1
ZNF22,ZNF608,1
ZNF22,ZNF609,1
ZNF22,ZNF639,1
ZNF22,ZNF667,1
ZNF22,ZNF697,1
ZNF22,ZNF776,1
ZNF22,ZNF781,1
ZNF22,ZNF786,1
ZNF22,ZNF787,1
ZNF22,ZSCAN21,1
ZNF22,ZUFSP,1
ZNF223,ZNF280B,1
ZNF223,ZNF384,1
ZNF223,ZNF385B,1
ZNF223,ZNF394,1
ZNF223,ZNF404,1
ZNF223,ZNF43,1
ZNF223,ZNF432,1
ZNF223,ZNF48,1
ZNF223,ZNF512,1
ZNF223,ZNF513,1
ZNF223,ZNF574,1
ZNF223,ZNF606,1
ZNF223,ZNF639,1
ZNF223,ZNF667,1
ZNF223,ZNF697,1
ZNF223,ZNF776,1
ZNF223,ZSCAN21,1
ZNF223,ZUFSP,1
ZNF226,ZNF273,1
ZNF226,ZNF334,1
ZNF226,ZNF493,1
ZNF226,ZNF511,1
ZNF226,ZNF781,1
ZNF226,ZNF787,1
ZNF263,ZNF280B,1
ZNF264,ZNF513,1
ZNF264,ZNF697,1
ZNF268,ZNF281,1
ZNF268,ZNF34,1
ZNF268,ZNF550,1
ZNF268,ZNF570,1
ZNF268,ZNF577,1
ZNF268,ZNF609,1
ZNF273,ZNF334,1
ZNF273,ZNF48,1
ZNF273,ZNF493,1
ZNF273,ZNF503,1
ZNF273,ZNF511,1
ZNF273,ZNF513,1
ZNF273,ZNF583,1
ZNF273,ZNF606,1
ZNF273,ZNF639,1
ZNF273,ZNF697,1
ZNF273,ZNF787,1
ZNF277,ZNF34,1
ZNF277,ZNF398,1
ZNF277,ZNF776,1
ZNF280B,ZNF384,1
ZNF280B,ZNF48,1
ZNF280B,ZNF513,1
ZNF280B,ZNF596,1
ZNF280B,ZNF606,1
ZNF280B,ZNF639,1
ZNF280B,ZNF697,1
ZNF280B,ZSCAN21,1
ZNF281,ZNF320,1
ZNF281,ZNF34,1
ZNF281,ZNF398,1
ZNF281,ZNF565,1
ZNF281,ZNF570,1
ZNF281,ZNF574,1
ZNF281,ZNF577,1
ZNF281,ZNF776,1
ZNF281,ZNF828,1
ZNF311,ZNF34,1
ZNF311,ZNF512,1
ZNF311,ZNF589,1
ZNF311,ZNF608,1
ZNF311,ZNF776,1
ZNF317,ZNF34,1
ZNF317,ZNF786,1
ZNF320,ZNF398,1
ZNF320,ZNF565,1
ZNF322A,ZNF385B,1
ZNF334,ZNF511,1
ZNF334,ZNF550,1
ZNF34,ZNF398,1
ZNF34,ZNF518A,1
ZNF34,ZNF565,1
ZNF34,ZNF570,1
ZNF34,ZNF574,1
ZNF34,ZNF577,1
ZNF34,ZNF589,1
ZNF34,ZNF608,1
ZNF34,ZNF609,1
ZNF34,ZNF667,1
ZNF34,ZNF738,1
ZNF34,ZNF776,1
ZNF34,ZNF786,1
ZNF34,ZNF828,1
ZNF34,ZSCAN21,1
ZNF34,ZUFSP,1
ZNF382,ZNF609,1
ZNF384,ZNF394,1
ZNF384,ZNF513,1
ZNF384,ZNF574,1
ZNF384,ZNF583,1
ZNF384,ZNF639,1
ZNF384,ZNF667,1
ZNF384,ZNF697,1
ZNF384,ZNF776,1
ZNF384,ZSCAN21,1
ZNF385B,ZNF43,1
ZNF385B,ZNF432,1
ZNF385B,ZNF512,1
ZNF385B,ZNF574,1
ZNF385B,ZUFSP,1
ZNF398,ZNF518A,1
ZNF398,ZNF565,1
ZNF398,ZNF609,1
ZNF398,ZNF623,1
ZNF398,ZNF738,1
ZNF398,ZNF828,1
ZNF404,ZNF43,1
ZNF404,ZNF432,1
ZNF404,ZNF512,1
ZNF404,ZNF574,1
ZNF404,ZNF667,1
ZNF404,ZNF776,1
ZNF404,ZSCAN21,1
ZNF404,ZUFSP,1
ZNF43,ZNF432,1
ZNF43,ZNF500,1
ZNF43,ZNF512,1
ZNF43,ZNF512B,1
ZNF43,ZNF574,1
ZNF43,ZNF606,1
ZNF43,ZUFSP,1
ZNF432,ZNF500,1
ZNF432,ZNF512,1
ZNF432,ZNF512B,1
ZNF432,ZNF574,1
ZNF432,ZUFSP,1
ZNF44,ZNF511,1
ZNF44,ZNF550,1
ZNF44,ZNF605,1
ZNF48,ZNF513,1
ZNF48,ZNF583,1
ZNF48,ZNF606,1
ZNF48,ZNF639,1
ZNF48,ZNF697,1
ZNF48,ZNF787,1
ZNF48,ZNFX1,1
ZNF493,ZNF79,1
ZNF500,ZNF512,1
ZNF500,ZUFSP,1
ZNF503,ZNF550,1
ZNF503,ZNF787,1
ZNF511,ZNF562,1
ZNF511,ZNF781,1
ZNF512,ZNF512B,1
ZNF512,ZNF574,1
ZNF512,ZNF776,1
ZNF512,ZUFSP,1
ZNF513,ZNF583,1
ZNF513,ZNF606,1
ZNF513,ZNF639,1
ZNF513,ZNF692,1
ZNF513,ZNF697,1
ZNF513,ZNF787,1
ZNF513,ZNFX1,1
ZNF513,ZSCAN21,1
ZNF518A,ZNF609,1
ZNF550,ZNF565,1
ZNF550,ZNF609,1
ZNF562,ZNF781,1
ZNF565,ZNF577,1
ZNF565,ZNF609,1
ZNF570,ZNF577,1
ZNF570,ZNF608,1
ZNF570,ZNF609,1
ZNF570,ZNF776,1
ZNF574,ZNF667,1
ZNF574,ZNF776,1
ZNF574,ZNF828,1
ZNF574,ZSCAN21,1
ZNF574,ZUFSP,1
ZNF577,ZNF609,1
ZNF577,ZNF776,1
ZNF583,ZNF606,1
ZNF583,ZNF639,1
ZNF583,ZNF697,1
ZNF583,ZNF787,1
ZNF589,ZNF608,1
ZNF606,ZNF639,1
ZNF606,ZNF697,1
ZNF606,ZNF787,1
ZNF606,ZNFX1,1
ZNF606,ZSCAN21,1
ZNF608,ZNF776,1
ZNF639,ZNF692,1
ZNF639,ZNF697,1
ZNF639,ZNF787,1
ZNF639,ZNFX1,1
ZNF639,ZSCAN21,1
ZNF667,ZNF776,1
ZNF667,ZSCAN21,1
ZNF667,ZUFSP,1
ZNF692,ZNFX1,1
ZNF697,ZNF787,1
ZNF697,ZSCAN21,1
ZNF738,ZNF776,1
ZNF738,ZNF828,1
ZNF738,ZUFSP,1
ZNF776,ZNF828,1
ZNF776,ZSCAN21,1
ZNF776,ZUFSP,1
ZNF828,ZUFSP,1
